EESchema Schematic File Version 4
LIBS:xmega32e5_eval-cache
EELAYER 30 0
EELAYER END
$Descr A4 11693 8268
encoding utf-8
Sheet 1 1
Title ""
Date ""
Rev ""
Comp ""
Comment1 ""
Comment2 ""
Comment3 ""
Comment4 ""
$EndDescr
$Comp
L MCU_Microchip_ATmega:ATxmega32E5-AU U1
U 1 1 5E10DBE7
P 5400 3650
F 0 "U1" H 5700 4700 50  0000 C CNN
F 1 "ATxmega32E5-AU" H 5800 2600 50  0000 C CNN
F 2 "Package_QFP:TQFP-32_7x7mm_P0.8mm" H 5400 3650 50  0001 C CIN
F 3 "http://ww1.microchip.com/downloads/en/DeviceDoc/Atmel-8153-8-and-16-bit-AVR-Microcontroller-XMEGA-E-ATxmega8E5-ATxmega16E5-ATxmega32E5_Datasheet.pdf" H 5400 3650 50  0001 C CNN
	1    5400 3650
	1    0    0    -1  
$EndComp
$Comp
L Connector:AVR-PDI-6 PDI1
U 1 1 5E10E774
P 2400 2450
F 0 "PDI1" H 2121 2496 50  0000 R CNN
F 1 "AVR-PDI-6" H 2121 2405 50  0000 R CNN
F 2 "Connector_PinHeader_2.54mm:PinHeader_2x03_P2.54mm_Vertical" V 2150 2400 50  0001 C CNN
F 3 " ~" H 1125 1900 50  0001 C CNN
	1    2400 2450
	1    0    0    -1  
$EndComp
$Comp
L power:VCC #PWR01
U 1 1 5E10ED8C
P 2300 2000
F 0 "#PWR01" H 2300 1850 50  0001 C CNN
F 1 "VCC" H 2317 2173 50  0000 C CNN
F 2 "" H 2300 2000 50  0001 C CNN
F 3 "" H 2300 2000 50  0001 C CNN
	1    2300 2000
	1    0    0    -1  
$EndComp
Wire Wire Line
	2300 2000 2300 2050
$Comp
L power:GND #PWR02
U 1 1 5E110981
P 2300 2900
F 0 "#PWR02" H 2300 2650 50  0001 C CNN
F 1 "GND" H 2305 2727 50  0000 C CNN
F 2 "" H 2300 2900 50  0001 C CNN
F 3 "" H 2300 2900 50  0001 C CNN
	1    2300 2900
	1    0    0    -1  
$EndComp
Wire Wire Line
	2300 2900 2300 2850
Text HLabel 2850 2350 2    50   Output ~ 0
PDI_DATA
Text HLabel 2850 2450 2    50   Output ~ 0
PDI_CLK
Wire Wire Line
	2800 2350 2850 2350
Wire Wire Line
	2800 2450 2850 2450
Text HLabel 4650 2950 0    50   Input ~ 0
PDI_DATA
Wire Wire Line
	4700 2950 4650 2950
$Comp
L Switch:SW_Push SW1
U 1 1 5E114C6A
P 4400 2850
F 0 "SW1" H 4400 3135 50  0000 C CNN
F 1 "SW_Push" H 4400 3044 50  0000 C CNN
F 2 "Button_Switch_SMD:SW_SPST_SKQG_WithStem" H 4400 3050 50  0001 C CNN
F 3 "~" H 4400 3050 50  0001 C CNN
	1    4400 2850
	1    0    0    -1  
$EndComp
$Comp
L power:GND #PWR03
U 1 1 5E115948
P 4150 2900
F 0 "#PWR03" H 4150 2650 50  0001 C CNN
F 1 "GND" H 4155 2727 50  0000 C CNN
F 2 "" H 4150 2900 50  0001 C CNN
F 3 "" H 4150 2900 50  0001 C CNN
	1    4150 2900
	1    0    0    -1  
$EndComp
Wire Wire Line
	4200 2850 4150 2850
Wire Wire Line
	4150 2850 4150 2900
Wire Wire Line
	4600 2850 4650 2850
$Comp
L Device:R R1
U 1 1 5E116153
P 4650 2250
F 0 "R1" H 4720 2296 50  0000 L CNN
F 1 "R" H 4720 2205 50  0000 L CNN
F 2 "Resistor_SMD:R_0805_2012Metric_Pad1.15x1.40mm_HandSolder" V 4580 2250 50  0001 C CNN
F 3 "~" H 4650 2250 50  0001 C CNN
	1    4650 2250
	1    0    0    -1  
$EndComp
Text HLabel 4600 2450 0    50   Input ~ 0
PDI_CLK
Wire Wire Line
	4650 2400 4650 2450
Connection ~ 4650 2850
Wire Wire Line
	4650 2850 4700 2850
Wire Wire Line
	4600 2450 4650 2450
Connection ~ 4650 2450
Wire Wire Line
	4650 2450 4650 2850
$Comp
L power:VCC #PWR04
U 1 1 5E117110
P 4650 2050
F 0 "#PWR04" H 4650 1900 50  0001 C CNN
F 1 "VCC" H 4667 2223 50  0000 C CNN
F 2 "" H 4650 2050 50  0001 C CNN
F 3 "" H 4650 2050 50  0001 C CNN
	1    4650 2050
	1    0    0    -1  
$EndComp
Wire Wire Line
	4650 2050 4650 2100
$Comp
L Device:C C1
U 1 1 5E11A0FF
P 5100 2150
F 0 "C1" H 4986 2104 50  0000 R CNN
F 1 "C" H 4986 2195 50  0000 R CNN
F 2 "Capacitor_SMD:C_0805_2012Metric_Pad1.15x1.40mm_HandSolder" H 5138 2000 50  0001 C CNN
F 3 "~" H 5100 2150 50  0001 C CNN
	1    5100 2150
	1    0    0    1   
$EndComp
$Comp
L power:GND #PWR05
U 1 1 5E11AEA5
P 5100 2350
F 0 "#PWR05" H 5100 2100 50  0001 C CNN
F 1 "GND" H 5105 2177 50  0000 C CNN
F 2 "" H 5100 2350 50  0001 C CNN
F 3 "" H 5100 2350 50  0001 C CNN
	1    5100 2350
	1    0    0    -1  
$EndComp
Wire Wire Line
	5100 2300 5100 2350
Wire Wire Line
	5400 2550 5400 1950
Wire Wire Line
	5400 1950 5100 1950
Wire Wire Line
	5100 1950 5100 2000
$Comp
L power:VCC #PWR06
U 1 1 5E11DC9E
P 5400 1900
F 0 "#PWR06" H 5400 1750 50  0001 C CNN
F 1 "VCC" H 5417 2073 50  0000 C CNN
F 2 "" H 5400 1900 50  0001 C CNN
F 3 "" H 5400 1900 50  0001 C CNN
	1    5400 1900
	1    0    0    -1  
$EndComp
Wire Wire Line
	5400 1900 5400 1950
Connection ~ 5400 1950
$Comp
L Device:L L1
U 1 1 5E11F09F
P 5500 2150
F 0 "L1" H 5553 2196 50  0000 L CNN
F 1 "L" H 5553 2105 50  0000 L CNN
F 2 "Inductor_SMD:L_0805_2012Metric_Pad1.15x1.40mm_HandSolder" H 5500 2150 50  0001 C CNN
F 3 "~" H 5500 2150 50  0001 C CNN
	1    5500 2150
	1    0    0    -1  
$EndComp
Wire Wire Line
	5400 1950 5500 1950
Wire Wire Line
	5500 1950 5500 2000
Wire Wire Line
	5500 2300 5500 2350
$Comp
L Device:C C2
U 1 1 5E125549
P 5900 2150
F 0 "C2" H 5785 2104 50  0000 R CNN
F 1 "C" H 5785 2195 50  0000 R CNN
F 2 "Capacitor_SMD:C_0805_2012Metric_Pad1.15x1.40mm_HandSolder" H 5938 2000 50  0001 C CNN
F 3 "~" H 5900 2150 50  0001 C CNN
	1    5900 2150
	-1   0    0    1   
$EndComp
$Comp
L power:GND #PWR08
U 1 1 5E12597F
P 5900 2350
F 0 "#PWR08" H 5900 2100 50  0001 C CNN
F 1 "GND" H 5905 2177 50  0000 C CNN
F 2 "" H 5900 2350 50  0001 C CNN
F 3 "" H 5900 2350 50  0001 C CNN
	1    5900 2350
	1    0    0    -1  
$EndComp
Wire Wire Line
	5900 2300 5900 2350
Wire Wire Line
	5500 2350 5750 2350
Wire Wire Line
	5750 2350 5750 1950
Wire Wire Line
	5750 1950 5900 1950
Wire Wire Line
	5900 1950 5900 2000
Connection ~ 5500 2350
Wire Wire Line
	5500 2350 5500 2550
$Comp
L Connector_Generic:Conn_01x15 J1
U 1 1 5E12D27F
P 8700 3350
F 0 "J1" H 8780 3392 50  0000 L CNN
F 1 "Conn_01x15" H 8780 3301 50  0000 L CNN
F 2 "Connector_PinHeader_2.54mm:PinHeader_1x15_P2.54mm_Vertical" H 8700 3350 50  0001 C CNN
F 3 "~" H 8700 3350 50  0001 C CNN
	1    8700 3350
	1    0    0    -1  
$EndComp
$Comp
L Connector_Generic:Conn_01x15 J2
U 1 1 5E12F94F
P 8700 5150
F 0 "J2" H 8780 5192 50  0000 L CNN
F 1 "Conn_01x15" H 8780 5101 50  0000 L CNN
F 2 "Connector_PinHeader_2.54mm:PinHeader_1x15_P2.54mm_Vertical" H 8700 5150 50  0001 C CNN
F 3 "~" H 8700 5150 50  0001 C CNN
	1    8700 5150
	1    0    0    -1  
$EndComp
Text Label 5750 1950 0    50   ~ 0
AVCC
$Comp
L power:VCC #PWR010
U 1 1 5E151C8C
P 8050 3900
F 0 "#PWR010" H 8050 3750 50  0001 C CNN
F 1 "VCC" H 8067 4073 50  0000 C CNN
F 2 "" H 8050 3900 50  0001 C CNN
F 3 "" H 8050 3900 50  0001 C CNN
	1    8050 3900
	1    0    0    -1  
$EndComp
$Comp
L power:GND #PWR012
U 1 1 5E15627D
P 8450 5900
F 0 "#PWR012" H 8450 5650 50  0001 C CNN
F 1 "GND" H 8455 5727 50  0000 C CNN
F 2 "" H 8450 5900 50  0001 C CNN
F 3 "" H 8450 5900 50  0001 C CNN
	1    8450 5900
	1    0    0    -1  
$EndComp
Wire Wire Line
	8500 5850 8450 5850
Wire Wire Line
	8450 5850 8450 5900
Wire Wire Line
	8500 4050 8050 4050
Wire Wire Line
	8050 4050 8050 3900
$Comp
L power:GND #PWR07
U 1 1 5E10FE5B
P 5400 4800
F 0 "#PWR07" H 5400 4550 50  0001 C CNN
F 1 "GND" H 5405 4627 50  0000 C CNN
F 2 "" H 5400 4800 50  0001 C CNN
F 3 "" H 5400 4800 50  0001 C CNN
	1    5400 4800
	1    0    0    -1  
$EndComp
Wire Wire Line
	5400 4750 5400 4800
Text HLabel 4650 3750 0    50   BiDi ~ 0
PD0
Text HLabel 4650 3850 0    50   BiDi ~ 0
PD1
Text HLabel 4650 3950 0    50   BiDi ~ 0
PD2
Text HLabel 4650 4050 0    50   BiDi ~ 0
PD3
Text HLabel 4650 4150 0    50   BiDi ~ 0
PD4
Text HLabel 4650 4250 0    50   BiDi ~ 0
PD5
Text HLabel 4650 4350 0    50   BiDi ~ 0
PD6
Text HLabel 4650 4450 0    50   BiDi ~ 0
PD7
Text HLabel 6150 2850 2    50   BiDi ~ 0
PA0
Text HLabel 6150 2950 2    50   BiDi ~ 0
PA1
Text HLabel 6150 3050 2    50   BiDi ~ 0
PA2
Text HLabel 6150 3150 2    50   BiDi ~ 0
PA3
Text HLabel 6150 3250 2    50   BiDi ~ 0
PA4
Text HLabel 6150 3350 2    50   BiDi ~ 0
PA5
Text HLabel 6150 3450 2    50   BiDi ~ 0
PA6
Text HLabel 6150 3550 2    50   BiDi ~ 0
PA7
Text HLabel 6150 3750 2    50   BiDi ~ 0
PC0
Text HLabel 6150 3850 2    50   BiDi ~ 0
PC1
Text HLabel 6150 3950 2    50   BiDi ~ 0
PC2
Text HLabel 6150 4050 2    50   BiDi ~ 0
PC3
Text HLabel 6150 4150 2    50   BiDi ~ 0
PC4
Text HLabel 6150 4250 2    50   BiDi ~ 0
PC5
Text HLabel 6150 4350 2    50   BiDi ~ 0
PC6
Text HLabel 6150 4450 2    50   BiDi ~ 0
PC7
Wire Wire Line
	4650 3750 4700 3750
Wire Wire Line
	4700 3850 4650 3850
Wire Wire Line
	4650 3950 4700 3950
Wire Wire Line
	4650 4050 4700 4050
Wire Wire Line
	4650 4150 4700 4150
Wire Wire Line
	4650 4250 4700 4250
Wire Wire Line
	4650 4350 4700 4350
Wire Wire Line
	4650 4450 4700 4450
Wire Wire Line
	6100 3750 6150 3750
Wire Wire Line
	6150 3850 6100 3850
Wire Wire Line
	6100 3950 6150 3950
Wire Wire Line
	6150 4050 6100 4050
Wire Wire Line
	6100 4150 6150 4150
Wire Wire Line
	6150 4250 6100 4250
Wire Wire Line
	6100 4350 6150 4350
Wire Wire Line
	6150 4450 6100 4450
Wire Wire Line
	6100 3550 6150 3550
Wire Wire Line
	6100 3450 6150 3450
Wire Wire Line
	6100 3350 6150 3350
Wire Wire Line
	6150 3250 6100 3250
Wire Wire Line
	6100 3150 6150 3150
Wire Wire Line
	6150 3050 6100 3050
Wire Wire Line
	6100 2950 6150 2950
Wire Wire Line
	6150 2850 6100 2850
Text HLabel 4650 3150 0    50   BiDi ~ 0
PR0
Text HLabel 4650 3250 0    50   BiDi ~ 0
PR1
Wire Wire Line
	4700 3150 4650 3150
Wire Wire Line
	4650 3250 4700 3250
Text HLabel 8400 3250 0    50   BiDi ~ 0
PC0
Text HLabel 8400 3350 0    50   BiDi ~ 0
PC1
Text HLabel 8400 3450 0    50   BiDi ~ 0
PC2
Text HLabel 8400 3550 0    50   BiDi ~ 0
PC3
Text HLabel 8400 3650 0    50   BiDi ~ 0
PC4
Text HLabel 8400 3750 0    50   BiDi ~ 0
PC5
Text HLabel 8400 3850 0    50   BiDi ~ 0
PC6
Text HLabel 8400 3950 0    50   BiDi ~ 0
PC7
Wire Wire Line
	8400 3950 8500 3950
Wire Wire Line
	8500 3850 8400 3850
Wire Wire Line
	8400 3750 8500 3750
Wire Wire Line
	8400 3650 8500 3650
Wire Wire Line
	8400 3550 8500 3550
Wire Wire Line
	8400 3450 8500 3450
Wire Wire Line
	8400 3350 8500 3350
Wire Wire Line
	8400 3250 8500 3250
Text HLabel 8400 3050 0    50   BiDi ~ 0
PR0
Text HLabel 8400 3150 0    50   BiDi ~ 0
PR1
Wire Wire Line
	8500 3150 8400 3150
Wire Wire Line
	8400 3050 8500 3050
Text HLabel 8400 2650 0    50   BiDi ~ 0
PD4
Text HLabel 8400 2750 0    50   BiDi ~ 0
PD5
Text HLabel 8400 2850 0    50   BiDi ~ 0
PD6
Text HLabel 8400 2950 0    50   BiDi ~ 0
PD7
Wire Wire Line
	8400 2650 8500 2650
Wire Wire Line
	8400 2750 8500 2750
Wire Wire Line
	8400 2850 8500 2850
Wire Wire Line
	8400 2950 8500 2950
Text HLabel 8400 5750 0    50   BiDi ~ 0
PA0
Text HLabel 8400 5650 0    50   BiDi ~ 0
PA1
Text HLabel 8400 5550 0    50   BiDi ~ 0
PA2
Text HLabel 8400 5450 0    50   BiDi ~ 0
PA3
Text HLabel 8400 5350 0    50   BiDi ~ 0
PA4
Wire Wire Line
	8500 5750 8400 5750
Wire Wire Line
	8400 5650 8500 5650
Wire Wire Line
	8500 5550 8400 5550
Wire Wire Line
	8400 5450 8500 5450
Wire Wire Line
	8500 5350 8400 5350
$Comp
L power:GND #PWR09
U 1 1 5E160EDF
P 8000 5300
F 0 "#PWR09" H 8000 5050 50  0001 C CNN
F 1 "GND" H 8005 5127 50  0000 C CNN
F 2 "" H 8000 5300 50  0001 C CNN
F 3 "" H 8000 5300 50  0001 C CNN
	1    8000 5300
	1    0    0    -1  
$EndComp
Wire Wire Line
	8000 5300 8000 5250
Wire Wire Line
	8000 5250 8500 5250
Text HLabel 8400 5150 0    50   BiDi ~ 0
PA5
Text HLabel 8400 5050 0    50   BiDi ~ 0
PA6
Text HLabel 8400 4950 0    50   BiDi ~ 0
PA7
Wire Wire Line
	8500 5150 8400 5150
Wire Wire Line
	8400 5050 8500 5050
Wire Wire Line
	8500 4950 8400 4950
Text HLabel 8400 4850 0    50   BiDi ~ 0
PD0
Text HLabel 8400 4750 0    50   BiDi ~ 0
PD1
Text HLabel 8400 4650 0    50   BiDi ~ 0
PD2
Text HLabel 8400 4550 0    50   BiDi ~ 0
PD3
Wire Wire Line
	8500 4850 8400 4850
Wire Wire Line
	8400 4750 8500 4750
Wire Wire Line
	8500 4650 8400 4650
Wire Wire Line
	8400 4550 8500 4550
$Comp
L power:VCC #PWR011
U 1 1 5E185025
P 8450 4400
F 0 "#PWR011" H 8450 4250 50  0001 C CNN
F 1 "VCC" H 8467 4573 50  0000 C CNN
F 2 "" H 8450 4400 50  0001 C CNN
F 3 "" H 8450 4400 50  0001 C CNN
	1    8450 4400
	1    0    0    -1  
$EndComp
Wire Wire Line
	8500 4450 8450 4450
Wire Wire Line
	8450 4450 8450 4400
$EndSCHEMATC
