(kicad_pcb (version 20171130) (host pcbnew 5.1.4+dfsg1-1)

  (general
    (thickness 1.6)
    (drawings 17)
    (tracks 197)
    (zones 0)
    (modules 9)
    (nets 34)
  )

  (page A4)
  (layers
    (0 F.Cu signal hide)
    (31 B.Cu signal hide)
    (32 B.Adhes user)
    (33 F.Adhes user)
    (34 B.Paste user)
    (35 F.Paste user)
    (36 B.SilkS user)
    (37 F.SilkS user)
    (38 B.Mask user)
    (39 F.Mask user)
    (40 Dwgs.User user)
    (41 Cmts.User user)
    (42 Eco1.User user)
    (43 Eco2.User user)
    (44 Edge.Cuts user)
    (45 Margin user)
    (46 B.CrtYd user)
    (47 F.CrtYd user)
    (48 B.Fab user)
    (49 F.Fab user)
  )

  (setup
    (last_trace_width 0.33)
    (trace_clearance 0.2)
    (zone_clearance 0.508)
    (zone_45_only no)
    (trace_min 0.2)
    (via_size 0.8)
    (via_drill 0.4)
    (via_min_size 0.4)
    (via_min_drill 0.3)
    (uvia_size 0.3)
    (uvia_drill 0.1)
    (uvias_allowed no)
    (uvia_min_size 0.2)
    (uvia_min_drill 0.1)
    (edge_width 0.05)
    (segment_width 0.2)
    (pcb_text_width 0.3)
    (pcb_text_size 1.5 1.5)
    (mod_edge_width 0.12)
    (mod_text_size 1 1)
    (mod_text_width 0.15)
    (pad_size 1.524 1.524)
    (pad_drill 0.762)
    (pad_to_mask_clearance 0.051)
    (solder_mask_min_width 0.25)
    (aux_axis_origin 114.935 111.125)
    (grid_origin 114.935 111.125)
    (visible_elements FFFDFF7F)
    (pcbplotparams
      (layerselection 0x010fc_ffffffff)
      (usegerberextensions false)
      (usegerberattributes false)
      (usegerberadvancedattributes false)
      (creategerberjobfile false)
      (excludeedgelayer true)
      (linewidth 0.100000)
      (plotframeref false)
      (viasonmask false)
      (mode 1)
      (useauxorigin false)
      (hpglpennumber 1)
      (hpglpenspeed 20)
      (hpglpendiameter 15.000000)
      (psnegative false)
      (psa4output false)
      (plotreference true)
      (plotvalue true)
      (plotinvisibletext false)
      (padsonsilk false)
      (subtractmaskfromsilk false)
      (outputformat 1)
      (mirror false)
      (drillshape 1)
      (scaleselection 1)
      (outputdirectory ""))
  )

  (net 0 "")
  (net 1 GND)
  (net 2 VCC)
  (net 3 /PDI_DATA)
  (net 4 /PDI_CLK)
  (net 5 /AVCC)
  (net 6 /PA4)
  (net 7 /PA3)
  (net 8 /PA2)
  (net 9 /PA1)
  (net 10 /PA0)
  (net 11 /PC7)
  (net 12 /PC6)
  (net 13 /PC5)
  (net 14 /PC4)
  (net 15 /PC3)
  (net 16 /PC2)
  (net 17 /PC1)
  (net 18 /PC0)
  (net 19 /PR1)
  (net 20 /PR0)
  (net 21 /PD7)
  (net 22 /PD6)
  (net 23 /PD5)
  (net 24 /PD4)
  (net 25 /PD3)
  (net 26 /PD2)
  (net 27 /PD1)
  (net 28 /PD0)
  (net 29 /PA7)
  (net 30 /PA6)
  (net 31 /PA5)
  (net 32 "Net-(PDI1-Pad3)")
  (net 33 "Net-(PDI1-Pad4)")

  (net_class Default "This is the default net class."
    (clearance 0.2)
    (trace_width 0.33)
    (via_dia 0.8)
    (via_drill 0.4)
    (uvia_dia 0.3)
    (uvia_drill 0.1)
    (add_net /PA0)
    (add_net /PA1)
    (add_net /PA2)
    (add_net /PA3)
    (add_net /PA4)
    (add_net /PA5)
    (add_net /PA6)
    (add_net /PA7)
    (add_net /PC0)
    (add_net /PC1)
    (add_net /PC2)
    (add_net /PC3)
    (add_net /PC4)
    (add_net /PC5)
    (add_net /PC6)
    (add_net /PC7)
    (add_net /PD0)
    (add_net /PD1)
    (add_net /PD2)
    (add_net /PD3)
    (add_net /PD4)
    (add_net /PD5)
    (add_net /PD6)
    (add_net /PD7)
    (add_net /PDI_CLK)
    (add_net /PDI_DATA)
    (add_net /PR0)
    (add_net /PR1)
    (add_net "Net-(PDI1-Pad3)")
    (add_net "Net-(PDI1-Pad4)")
  )

  (net_class Power ""
    (clearance 0.2)
    (trace_width 0.5)
    (via_dia 1)
    (via_drill 0.8)
    (uvia_dia 0.3)
    (uvia_drill 0.1)
    (add_net /AVCC)
    (add_net GND)
    (add_net VCC)
  )

  (module Capacitor_SMD:C_0805_2012Metric_Pad1.15x1.40mm_HandSolder (layer F.Cu) (tedit 5B36C52B) (tstamp 5E1104EA)
    (at 120.65 99.695 90)
    (descr "Capacitor SMD 0805 (2012 Metric), square (rectangular) end terminal, IPC_7351 nominal with elongated pad for handsoldering. (Body size source: https://docs.google.com/spreadsheets/d/1BsfQQcO9C6DZCsRaXUlFlo91Tg2WpOkGARC1WS5S8t0/edit?usp=sharing), generated with kicad-footprint-generator")
    (tags "capacitor handsolder")
    (path /5E11A0FF)
    (attr smd)
    (fp_text reference C1 (at -2.54 0 180) (layer F.SilkS)
      (effects (font (size 1 1) (thickness 0.15)))
    )
    (fp_text value C (at 0 1.65 90) (layer F.Fab)
      (effects (font (size 1 1) (thickness 0.15)))
    )
    (fp_line (start -1 0.6) (end -1 -0.6) (layer F.Fab) (width 0.1))
    (fp_line (start -1 -0.6) (end 1 -0.6) (layer F.Fab) (width 0.1))
    (fp_line (start 1 -0.6) (end 1 0.6) (layer F.Fab) (width 0.1))
    (fp_line (start 1 0.6) (end -1 0.6) (layer F.Fab) (width 0.1))
    (fp_line (start -0.261252 -0.71) (end 0.261252 -0.71) (layer F.SilkS) (width 0.12))
    (fp_line (start -0.261252 0.71) (end 0.261252 0.71) (layer F.SilkS) (width 0.12))
    (fp_line (start -1.85 0.95) (end -1.85 -0.95) (layer F.CrtYd) (width 0.05))
    (fp_line (start -1.85 -0.95) (end 1.85 -0.95) (layer F.CrtYd) (width 0.05))
    (fp_line (start 1.85 -0.95) (end 1.85 0.95) (layer F.CrtYd) (width 0.05))
    (fp_line (start 1.85 0.95) (end -1.85 0.95) (layer F.CrtYd) (width 0.05))
    (fp_text user %R (at 0 0 90) (layer F.Fab)
      (effects (font (size 0.5 0.5) (thickness 0.08)))
    )
    (pad 1 smd roundrect (at -1.025 0 90) (size 1.15 1.4) (layers F.Cu F.Paste F.Mask) (roundrect_rratio 0.217391)
      (net 1 GND))
    (pad 2 smd roundrect (at 1.025 0 90) (size 1.15 1.4) (layers F.Cu F.Paste F.Mask) (roundrect_rratio 0.217391)
      (net 2 VCC))
    (model ${KISYS3DMOD}/Capacitor_SMD.3dshapes/C_0805_2012Metric.wrl
      (at (xyz 0 0 0))
      (scale (xyz 1 1 1))
      (rotate (xyz 0 0 0))
    )
  )

  (module Capacitor_SMD:C_0805_2012Metric_Pad1.15x1.40mm_HandSolder (layer F.Cu) (tedit 5B36C52B) (tstamp 5E115F81)
    (at 132.08 100.33 90)
    (descr "Capacitor SMD 0805 (2012 Metric), square (rectangular) end terminal, IPC_7351 nominal with elongated pad for handsoldering. (Body size source: https://docs.google.com/spreadsheets/d/1BsfQQcO9C6DZCsRaXUlFlo91Tg2WpOkGARC1WS5S8t0/edit?usp=sharing), generated with kicad-footprint-generator")
    (tags "capacitor handsolder")
    (path /5E125549)
    (attr smd)
    (fp_text reference C2 (at -2.54 0 180) (layer F.SilkS)
      (effects (font (size 1 1) (thickness 0.15)))
    )
    (fp_text value C (at 0 1.65 90) (layer F.Fab)
      (effects (font (size 1 1) (thickness 0.15)))
    )
    (fp_text user %R (at 0 0 90) (layer F.Fab)
      (effects (font (size 0.5 0.5) (thickness 0.08)))
    )
    (fp_line (start 1.85 0.95) (end -1.85 0.95) (layer F.CrtYd) (width 0.05))
    (fp_line (start 1.85 -0.95) (end 1.85 0.95) (layer F.CrtYd) (width 0.05))
    (fp_line (start -1.85 -0.95) (end 1.85 -0.95) (layer F.CrtYd) (width 0.05))
    (fp_line (start -1.85 0.95) (end -1.85 -0.95) (layer F.CrtYd) (width 0.05))
    (fp_line (start -0.261252 0.71) (end 0.261252 0.71) (layer F.SilkS) (width 0.12))
    (fp_line (start -0.261252 -0.71) (end 0.261252 -0.71) (layer F.SilkS) (width 0.12))
    (fp_line (start 1 0.6) (end -1 0.6) (layer F.Fab) (width 0.1))
    (fp_line (start 1 -0.6) (end 1 0.6) (layer F.Fab) (width 0.1))
    (fp_line (start -1 -0.6) (end 1 -0.6) (layer F.Fab) (width 0.1))
    (fp_line (start -1 0.6) (end -1 -0.6) (layer F.Fab) (width 0.1))
    (pad 2 smd roundrect (at 1.025 0 90) (size 1.15 1.4) (layers F.Cu F.Paste F.Mask) (roundrect_rratio 0.217391)
      (net 5 /AVCC))
    (pad 1 smd roundrect (at -1.025 0 90) (size 1.15 1.4) (layers F.Cu F.Paste F.Mask) (roundrect_rratio 0.217391)
      (net 1 GND))
    (model ${KISYS3DMOD}/Capacitor_SMD.3dshapes/C_0805_2012Metric.wrl
      (at (xyz 0 0 0))
      (scale (xyz 1 1 1))
      (rotate (xyz 0 0 0))
    )
  )

  (module Connector_PinHeader_2.54mm:PinHeader_2x03_P2.54mm_Vertical (layer F.Cu) (tedit 59FED5CC) (tstamp 5E114C65)
    (at 124.46 76.2 90)
    (descr "Through hole straight pin header, 2x03, 2.54mm pitch, double rows")
    (tags "Through hole pin header THT 2x03 2.54mm double row")
    (path /5E10E774)
    (fp_text reference PDI (at 2.54 -2.54 90) (layer F.SilkS)
      (effects (font (size 1 1) (thickness 0.15)))
    )
    (fp_text value AVR-PDI-6 (at 1.27 7.41 90) (layer F.Fab)
      (effects (font (size 1 1) (thickness 0.15)))
    )
    (fp_line (start 0 -1.27) (end 3.81 -1.27) (layer F.Fab) (width 0.1))
    (fp_line (start 3.81 -1.27) (end 3.81 6.35) (layer F.Fab) (width 0.1))
    (fp_line (start 3.81 6.35) (end -1.27 6.35) (layer F.Fab) (width 0.1))
    (fp_line (start -1.27 6.35) (end -1.27 0) (layer F.Fab) (width 0.1))
    (fp_line (start -1.27 0) (end 0 -1.27) (layer F.Fab) (width 0.1))
    (fp_line (start -1.33 6.41) (end 3.87 6.41) (layer F.SilkS) (width 0.12))
    (fp_line (start -1.33 1.27) (end -1.33 6.41) (layer F.SilkS) (width 0.12))
    (fp_line (start 3.87 -1.33) (end 3.87 6.41) (layer F.SilkS) (width 0.12))
    (fp_line (start -1.33 1.27) (end 1.27 1.27) (layer F.SilkS) (width 0.12))
    (fp_line (start 1.27 1.27) (end 1.27 -1.33) (layer F.SilkS) (width 0.12))
    (fp_line (start 1.27 -1.33) (end 3.87 -1.33) (layer F.SilkS) (width 0.12))
    (fp_line (start -1.33 0) (end -1.33 -1.33) (layer F.SilkS) (width 0.12))
    (fp_line (start -1.33 -1.33) (end 0 -1.33) (layer F.SilkS) (width 0.12))
    (fp_line (start -1.8 -1.8) (end -1.8 6.85) (layer F.CrtYd) (width 0.05))
    (fp_line (start -1.8 6.85) (end 4.35 6.85) (layer F.CrtYd) (width 0.05))
    (fp_line (start 4.35 6.85) (end 4.35 -1.8) (layer F.CrtYd) (width 0.05))
    (fp_line (start 4.35 -1.8) (end -1.8 -1.8) (layer F.CrtYd) (width 0.05))
    (fp_text user %R (at 1.27 2.54) (layer F.Fab)
      (effects (font (size 1 1) (thickness 0.15)))
    )
    (pad 1 thru_hole rect (at 0 0 90) (size 1.7 1.7) (drill 1) (layers *.Cu *.Mask)
      (net 3 /PDI_DATA))
    (pad 2 thru_hole oval (at 2.54 0 90) (size 1.7 1.7) (drill 1) (layers *.Cu *.Mask)
      (net 2 VCC))
    (pad 3 thru_hole oval (at 0 2.54 90) (size 1.7 1.7) (drill 1) (layers *.Cu *.Mask)
      (net 32 "Net-(PDI1-Pad3)"))
    (pad 4 thru_hole oval (at 2.54 2.54 90) (size 1.7 1.7) (drill 1) (layers *.Cu *.Mask)
      (net 33 "Net-(PDI1-Pad4)"))
    (pad 5 thru_hole oval (at 0 5.08 90) (size 1.7 1.7) (drill 1) (layers *.Cu *.Mask)
      (net 4 /PDI_CLK))
    (pad 6 thru_hole oval (at 2.54 5.08 90) (size 1.7 1.7) (drill 1) (layers *.Cu *.Mask)
      (net 1 GND))
    (model ${KISYS3DMOD}/Connector_PinHeader_2.54mm.3dshapes/PinHeader_2x03_P2.54mm_Vertical.wrl
      (at (xyz 0 0 0))
      (scale (xyz 1 1 1))
      (rotate (xyz 0 0 0))
    )
  )

  (module Connector_PinHeader_2.54mm:PinHeader_1x15_P2.54mm_Vertical (layer B.Cu) (tedit 59FED5CC) (tstamp 5E114663)
    (at 116.84 109.22)
    (descr "Through hole straight pin header, 1x15, 2.54mm pitch, single row")
    (tags "Through hole pin header THT 1x15 2.54mm single row")
    (path /5E12D27F)
    (fp_text reference . (at 1.905 0 90) (layer B.SilkS)
      (effects (font (size 1 1) (thickness 0.15)) (justify mirror))
    )
    (fp_text value Conn_01x15 (at 0 -37.89) (layer B.Fab)
      (effects (font (size 1 1) (thickness 0.15)) (justify mirror))
    )
    (fp_line (start -0.635 1.27) (end 1.27 1.27) (layer B.Fab) (width 0.1))
    (fp_line (start 1.27 1.27) (end 1.27 -36.83) (layer B.Fab) (width 0.1))
    (fp_line (start 1.27 -36.83) (end -1.27 -36.83) (layer B.Fab) (width 0.1))
    (fp_line (start -1.27 -36.83) (end -1.27 0.635) (layer B.Fab) (width 0.1))
    (fp_line (start -1.27 0.635) (end -0.635 1.27) (layer B.Fab) (width 0.1))
    (fp_line (start -1.33 -36.89) (end 1.33 -36.89) (layer B.SilkS) (width 0.12))
    (fp_line (start -1.33 -1.27) (end -1.33 -36.89) (layer B.SilkS) (width 0.12))
    (fp_line (start 1.33 -1.27) (end 1.33 -36.89) (layer B.SilkS) (width 0.12))
    (fp_line (start -1.33 -1.27) (end 1.33 -1.27) (layer B.SilkS) (width 0.12))
    (fp_line (start -1.33 0) (end -1.33 1.33) (layer B.SilkS) (width 0.12))
    (fp_line (start -1.33 1.33) (end 0 1.33) (layer B.SilkS) (width 0.12))
    (fp_line (start -1.8 1.8) (end -1.8 -37.35) (layer B.CrtYd) (width 0.05))
    (fp_line (start -1.8 -37.35) (end 1.8 -37.35) (layer B.CrtYd) (width 0.05))
    (fp_line (start 1.8 -37.35) (end 1.8 1.8) (layer B.CrtYd) (width 0.05))
    (fp_line (start 1.8 1.8) (end -1.8 1.8) (layer B.CrtYd) (width 0.05))
    (fp_text user %R (at 0 -17.78 -90) (layer B.Fab)
      (effects (font (size 1 1) (thickness 0.15)) (justify mirror))
    )
    (pad 1 thru_hole rect (at 0 0) (size 1.7 1.7) (drill 1) (layers *.Cu *.Mask)
      (net 24 /PD4))
    (pad 2 thru_hole oval (at 0 -2.54) (size 1.7 1.7) (drill 1) (layers *.Cu *.Mask)
      (net 23 /PD5))
    (pad 3 thru_hole oval (at 0 -5.08) (size 1.7 1.7) (drill 1) (layers *.Cu *.Mask)
      (net 22 /PD6))
    (pad 4 thru_hole oval (at 0 -7.62) (size 1.7 1.7) (drill 1) (layers *.Cu *.Mask)
      (net 21 /PD7))
    (pad 5 thru_hole oval (at 0 -10.16) (size 1.7 1.7) (drill 1) (layers *.Cu *.Mask)
      (net 20 /PR0))
    (pad 6 thru_hole oval (at 0 -12.7) (size 1.7 1.7) (drill 1) (layers *.Cu *.Mask)
      (net 19 /PR1))
    (pad 7 thru_hole oval (at 0 -15.24) (size 1.7 1.7) (drill 1) (layers *.Cu *.Mask)
      (net 18 /PC0))
    (pad 8 thru_hole oval (at 0 -17.78) (size 1.7 1.7) (drill 1) (layers *.Cu *.Mask)
      (net 17 /PC1))
    (pad 9 thru_hole oval (at 0 -20.32) (size 1.7 1.7) (drill 1) (layers *.Cu *.Mask)
      (net 16 /PC2))
    (pad 10 thru_hole oval (at 0 -22.86) (size 1.7 1.7) (drill 1) (layers *.Cu *.Mask)
      (net 15 /PC3))
    (pad 11 thru_hole oval (at 0 -25.4) (size 1.7 1.7) (drill 1) (layers *.Cu *.Mask)
      (net 14 /PC4))
    (pad 12 thru_hole oval (at 0 -27.94) (size 1.7 1.7) (drill 1) (layers *.Cu *.Mask)
      (net 13 /PC5))
    (pad 13 thru_hole oval (at 0 -30.48) (size 1.7 1.7) (drill 1) (layers *.Cu *.Mask)
      (net 12 /PC6))
    (pad 14 thru_hole oval (at 0 -33.02) (size 1.7 1.7) (drill 1) (layers *.Cu *.Mask)
      (net 11 /PC7))
    (pad 15 thru_hole oval (at 0 -35.56) (size 1.7 1.7) (drill 1) (layers *.Cu *.Mask)
      (net 2 VCC))
    (model ${KISYS3DMOD}/Connector_PinHeader_2.54mm.3dshapes/PinHeader_1x15_P2.54mm_Vertical.wrl
      (at (xyz 0 0 0))
      (scale (xyz 1 1 1))
      (rotate (xyz 0 0 0))
    )
  )

  (module Connector_PinHeader_2.54mm:PinHeader_1x15_P2.54mm_Vertical (layer B.Cu) (tedit 59FED5CC) (tstamp 5E114686)
    (at 137.16 109.22)
    (descr "Through hole straight pin header, 1x15, 2.54mm pitch, single row")
    (tags "Through hole pin header THT 1x15 2.54mm single row")
    (path /5E12F94F)
    (fp_text reference . (at -2.54 0 90) (layer B.SilkS)
      (effects (font (size 1 1) (thickness 0.15)) (justify mirror))
    )
    (fp_text value Conn_01x15 (at 0 -37.89) (layer B.Fab)
      (effects (font (size 1 1) (thickness 0.15)) (justify mirror))
    )
    (fp_text user %R (at 0 -17.78 -90) (layer B.Fab)
      (effects (font (size 1 1) (thickness 0.15)) (justify mirror))
    )
    (fp_line (start 1.8 1.8) (end -1.8 1.8) (layer B.CrtYd) (width 0.05))
    (fp_line (start 1.8 -37.35) (end 1.8 1.8) (layer B.CrtYd) (width 0.05))
    (fp_line (start -1.8 -37.35) (end 1.8 -37.35) (layer B.CrtYd) (width 0.05))
    (fp_line (start -1.8 1.8) (end -1.8 -37.35) (layer B.CrtYd) (width 0.05))
    (fp_line (start -1.33 1.33) (end 0 1.33) (layer B.SilkS) (width 0.12))
    (fp_line (start -1.33 0) (end -1.33 1.33) (layer B.SilkS) (width 0.12))
    (fp_line (start -1.33 -1.27) (end 1.33 -1.27) (layer B.SilkS) (width 0.12))
    (fp_line (start 1.33 -1.27) (end 1.33 -36.89) (layer B.SilkS) (width 0.12))
    (fp_line (start -1.33 -1.27) (end -1.33 -36.89) (layer B.SilkS) (width 0.12))
    (fp_line (start -1.33 -36.89) (end 1.33 -36.89) (layer B.SilkS) (width 0.12))
    (fp_line (start -1.27 0.635) (end -0.635 1.27) (layer B.Fab) (width 0.1))
    (fp_line (start -1.27 -36.83) (end -1.27 0.635) (layer B.Fab) (width 0.1))
    (fp_line (start 1.27 -36.83) (end -1.27 -36.83) (layer B.Fab) (width 0.1))
    (fp_line (start 1.27 1.27) (end 1.27 -36.83) (layer B.Fab) (width 0.1))
    (fp_line (start -0.635 1.27) (end 1.27 1.27) (layer B.Fab) (width 0.1))
    (pad 15 thru_hole oval (at 0 -35.56) (size 1.7 1.7) (drill 1) (layers *.Cu *.Mask)
      (net 1 GND))
    (pad 14 thru_hole oval (at 0 -33.02) (size 1.7 1.7) (drill 1) (layers *.Cu *.Mask)
      (net 10 /PA0))
    (pad 13 thru_hole oval (at 0 -30.48) (size 1.7 1.7) (drill 1) (layers *.Cu *.Mask)
      (net 9 /PA1))
    (pad 12 thru_hole oval (at 0 -27.94) (size 1.7 1.7) (drill 1) (layers *.Cu *.Mask)
      (net 8 /PA2))
    (pad 11 thru_hole oval (at 0 -25.4) (size 1.7 1.7) (drill 1) (layers *.Cu *.Mask)
      (net 7 /PA3))
    (pad 10 thru_hole oval (at 0 -22.86) (size 1.7 1.7) (drill 1) (layers *.Cu *.Mask)
      (net 6 /PA4))
    (pad 9 thru_hole oval (at 0 -20.32) (size 1.7 1.7) (drill 1) (layers *.Cu *.Mask)
      (net 1 GND))
    (pad 8 thru_hole oval (at 0 -17.78) (size 1.7 1.7) (drill 1) (layers *.Cu *.Mask)
      (net 31 /PA5))
    (pad 7 thru_hole oval (at 0 -15.24) (size 1.7 1.7) (drill 1) (layers *.Cu *.Mask)
      (net 30 /PA6))
    (pad 6 thru_hole oval (at 0 -12.7) (size 1.7 1.7) (drill 1) (layers *.Cu *.Mask)
      (net 29 /PA7))
    (pad 5 thru_hole oval (at 0 -10.16) (size 1.7 1.7) (drill 1) (layers *.Cu *.Mask)
      (net 28 /PD0))
    (pad 4 thru_hole oval (at 0 -7.62) (size 1.7 1.7) (drill 1) (layers *.Cu *.Mask)
      (net 27 /PD1))
    (pad 3 thru_hole oval (at 0 -5.08) (size 1.7 1.7) (drill 1) (layers *.Cu *.Mask)
      (net 26 /PD2))
    (pad 2 thru_hole oval (at 0 -2.54) (size 1.7 1.7) (drill 1) (layers *.Cu *.Mask)
      (net 25 /PD3))
    (pad 1 thru_hole rect (at 0 0) (size 1.7 1.7) (drill 1) (layers *.Cu *.Mask)
      (net 2 VCC))
    (model ${KISYS3DMOD}/Connector_PinHeader_2.54mm.3dshapes/PinHeader_1x15_P2.54mm_Vertical.wrl
      (at (xyz 0 0 0))
      (scale (xyz 1 1 1))
      (rotate (xyz 0 0 0))
    )
  )

  (module Inductor_SMD:L_0805_2012Metric_Pad1.15x1.40mm_HandSolder (layer F.Cu) (tedit 5B36C52B) (tstamp 5E115DC4)
    (at 129.54 101.6 90)
    (descr "Capacitor SMD 0805 (2012 Metric), square (rectangular) end terminal, IPC_7351 nominal with elongated pad for handsoldering. (Body size source: https://docs.google.com/spreadsheets/d/1BsfQQcO9C6DZCsRaXUlFlo91Tg2WpOkGARC1WS5S8t0/edit?usp=sharing), generated with kicad-footprint-generator")
    (tags "inductor handsolder")
    (path /5E11F09F)
    (attr smd)
    (fp_text reference L1 (at -2.54 0 180) (layer F.SilkS)
      (effects (font (size 1 1) (thickness 0.15)))
    )
    (fp_text value L (at 0 1.65 90) (layer F.Fab)
      (effects (font (size 1 1) (thickness 0.15)))
    )
    (fp_line (start -1 0.6) (end -1 -0.6) (layer F.Fab) (width 0.1))
    (fp_line (start -1 -0.6) (end 1 -0.6) (layer F.Fab) (width 0.1))
    (fp_line (start 1 -0.6) (end 1 0.6) (layer F.Fab) (width 0.1))
    (fp_line (start 1 0.6) (end -1 0.6) (layer F.Fab) (width 0.1))
    (fp_line (start -0.261252 -0.71) (end 0.261252 -0.71) (layer F.SilkS) (width 0.12))
    (fp_line (start -0.261252 0.71) (end 0.261252 0.71) (layer F.SilkS) (width 0.12))
    (fp_line (start -1.85 0.95) (end -1.85 -0.95) (layer F.CrtYd) (width 0.05))
    (fp_line (start -1.85 -0.95) (end 1.85 -0.95) (layer F.CrtYd) (width 0.05))
    (fp_line (start 1.85 -0.95) (end 1.85 0.95) (layer F.CrtYd) (width 0.05))
    (fp_line (start 1.85 0.95) (end -1.85 0.95) (layer F.CrtYd) (width 0.05))
    (fp_text user %R (at 0 0 90) (layer F.Fab)
      (effects (font (size 0.5 0.5) (thickness 0.08)))
    )
    (pad 1 smd roundrect (at -1.025 0 90) (size 1.15 1.4) (layers F.Cu F.Paste F.Mask) (roundrect_rratio 0.217391)
      (net 2 VCC))
    (pad 2 smd roundrect (at 1.025 0 90) (size 1.15 1.4) (layers F.Cu F.Paste F.Mask) (roundrect_rratio 0.217391)
      (net 5 /AVCC))
    (model ${KISYS3DMOD}/Inductor_SMD.3dshapes/L_0805_2012Metric.wrl
      (at (xyz 0 0 0))
      (scale (xyz 1 1 1))
      (rotate (xyz 0 0 0))
    )
  )

  (module Resistor_SMD:R_0805_2012Metric_Pad1.15x1.40mm_HandSolder (layer F.Cu) (tedit 5B36C52B) (tstamp 5E115C9D)
    (at 121.285 78.105 270)
    (descr "Resistor SMD 0805 (2012 Metric), square (rectangular) end terminal, IPC_7351 nominal with elongated pad for handsoldering. (Body size source: https://docs.google.com/spreadsheets/d/1BsfQQcO9C6DZCsRaXUlFlo91Tg2WpOkGARC1WS5S8t0/edit?usp=sharing), generated with kicad-footprint-generator")
    (tags "resistor handsolder")
    (path /5E116153)
    (attr smd)
    (fp_text reference R1 (at 2.54 0 180) (layer F.SilkS)
      (effects (font (size 1 1) (thickness 0.15)))
    )
    (fp_text value R (at 0 1.65 90) (layer F.Fab)
      (effects (font (size 1 1) (thickness 0.15)))
    )
    (fp_line (start -1 0.6) (end -1 -0.6) (layer F.Fab) (width 0.1))
    (fp_line (start -1 -0.6) (end 1 -0.6) (layer F.Fab) (width 0.1))
    (fp_line (start 1 -0.6) (end 1 0.6) (layer F.Fab) (width 0.1))
    (fp_line (start 1 0.6) (end -1 0.6) (layer F.Fab) (width 0.1))
    (fp_line (start -0.261252 -0.71) (end 0.261252 -0.71) (layer F.SilkS) (width 0.12))
    (fp_line (start -0.261252 0.71) (end 0.261252 0.71) (layer F.SilkS) (width 0.12))
    (fp_line (start -1.85 0.95) (end -1.85 -0.95) (layer F.CrtYd) (width 0.05))
    (fp_line (start -1.85 -0.95) (end 1.85 -0.95) (layer F.CrtYd) (width 0.05))
    (fp_line (start 1.85 -0.95) (end 1.85 0.95) (layer F.CrtYd) (width 0.05))
    (fp_line (start 1.85 0.95) (end -1.85 0.95) (layer F.CrtYd) (width 0.05))
    (fp_text user %R (at 0 0 90) (layer F.Fab)
      (effects (font (size 0.5 0.5) (thickness 0.08)))
    )
    (pad 1 smd roundrect (at -1.025 0 270) (size 1.15 1.4) (layers F.Cu F.Paste F.Mask) (roundrect_rratio 0.217391)
      (net 2 VCC))
    (pad 2 smd roundrect (at 1.025 0 270) (size 1.15 1.4) (layers F.Cu F.Paste F.Mask) (roundrect_rratio 0.217391)
      (net 4 /PDI_CLK))
    (model ${KISYS3DMOD}/Resistor_SMD.3dshapes/R_0805_2012Metric.wrl
      (at (xyz 0 0 0))
      (scale (xyz 1 1 1))
      (rotate (xyz 0 0 0))
    )
  )

  (module Button_Switch_SMD:SW_SPST_SKQG_WithStem (layer F.Cu) (tedit 5ABAB6AF) (tstamp 5E1146E4)
    (at 127 81.28 180)
    (descr "ALPS 5.2mm Square Low-profile Type (Surface Mount) SKQG Series, With stem, http://www.alps.com/prod/info/E/HTML/Tact/SurfaceMount/SKQG/SKQGAFE010.html")
    (tags "SPST Button Switch")
    (path /5E114C6A)
    (attr smd)
    (fp_text reference SW1 (at 3.175 -3.6) (layer F.SilkS)
      (effects (font (size 1 1) (thickness 0.15)))
    )
    (fp_text value SW_Push (at 0 3.6) (layer F.Fab)
      (effects (font (size 1 1) (thickness 0.15)))
    )
    (fp_line (start 1.4 -2.6) (end 2.6 -1.4) (layer F.Fab) (width 0.1))
    (fp_line (start 2.6 -1.4) (end 2.6 1.4) (layer F.Fab) (width 0.1))
    (fp_line (start 2.6 1.4) (end 1.4 2.6) (layer F.Fab) (width 0.1))
    (fp_line (start 1.4 2.6) (end -1.4 2.6) (layer F.Fab) (width 0.1))
    (fp_line (start -1.4 2.6) (end -2.6 1.4) (layer F.Fab) (width 0.1))
    (fp_line (start -2.6 1.4) (end -2.6 -1.4) (layer F.Fab) (width 0.1))
    (fp_line (start -2.6 -1.4) (end -1.4 -2.6) (layer F.Fab) (width 0.1))
    (fp_line (start -1.4 -2.6) (end 1.4 -2.6) (layer F.Fab) (width 0.1))
    (fp_line (start -4.25 -2.85) (end -4.25 2.85) (layer F.CrtYd) (width 0.05))
    (fp_line (start 4.25 -2.85) (end -4.25 -2.85) (layer F.CrtYd) (width 0.05))
    (fp_line (start 4.25 2.85) (end 4.25 -2.85) (layer F.CrtYd) (width 0.05))
    (fp_line (start -4.25 2.85) (end 4.25 2.85) (layer F.CrtYd) (width 0.05))
    (fp_line (start -0.95 -1.865) (end 0.95 -1.865) (layer F.Fab) (width 0.1))
    (fp_line (start -1.865 0.95) (end -1.865 -0.95) (layer F.Fab) (width 0.1))
    (fp_line (start 0.95 1.865) (end -0.95 1.865) (layer F.Fab) (width 0.1))
    (fp_line (start 1.865 -0.95) (end 1.865 0.95) (layer F.Fab) (width 0.1))
    (fp_line (start -2.72 1.04) (end -2.72 -1.04) (layer F.SilkS) (width 0.12))
    (fp_line (start 1.45 -2.72) (end 1.94 -2.23) (layer F.SilkS) (width 0.12))
    (fp_circle (center 0 0) (end 1 0) (layer F.Fab) (width 0.1))
    (fp_line (start 2.72 1.04) (end 2.72 -1.04) (layer F.SilkS) (width 0.12))
    (fp_line (start -1.45 -2.72) (end -1.94 -2.23) (layer F.SilkS) (width 0.12))
    (fp_line (start -1.45 -2.72) (end 1.45 -2.72) (layer F.SilkS) (width 0.12))
    (fp_text user %R (at 0 0) (layer F.Fab)
      (effects (font (size 0.4 0.4) (thickness 0.06)))
    )
    (fp_line (start -1.45 2.72) (end -1.94 2.23) (layer F.SilkS) (width 0.12))
    (fp_line (start -1.45 2.72) (end 1.45 2.72) (layer F.SilkS) (width 0.12))
    (fp_line (start 1.45 2.72) (end 1.94 2.23) (layer F.SilkS) (width 0.12))
    (fp_line (start 0.95 1.865) (end 1.865 0.95) (layer F.Fab) (width 0.1))
    (fp_line (start -0.95 1.865) (end -1.865 0.95) (layer F.Fab) (width 0.1))
    (fp_line (start -0.95 -1.865) (end -1.865 -0.95) (layer F.Fab) (width 0.1))
    (fp_line (start 0.95 -1.865) (end 1.865 -0.95) (layer F.Fab) (width 0.1))
    (fp_line (start 4 -1.3) (end 4 1.3) (layer Dwgs.User) (width 0.05))
    (fp_line (start 4 1.3) (end 1 1.3) (layer Dwgs.User) (width 0.05))
    (fp_line (start 1 1.3) (end 1 -1.3) (layer Dwgs.User) (width 0.05))
    (fp_line (start 1 -1.3) (end 4 -1.3) (layer Dwgs.User) (width 0.05))
    (fp_line (start 1 -0.3) (end 2 -1.3) (layer Dwgs.User) (width 0.05))
    (fp_line (start 1 0.7) (end 3 -1.3) (layer Dwgs.User) (width 0.05))
    (fp_line (start 4 -1.3) (end 1.4 1.3) (layer Dwgs.User) (width 0.05))
    (fp_line (start 2.4 1.3) (end 4 -0.3) (layer Dwgs.User) (width 0.05))
    (fp_line (start 4 0.7) (end 3.4 1.3) (layer Dwgs.User) (width 0.05))
    (fp_line (start -1 0.7) (end -1.6 1.3) (layer Dwgs.User) (width 0.05))
    (fp_line (start -4 1.3) (end -4 -1.3) (layer Dwgs.User) (width 0.05))
    (fp_line (start -4 0.7) (end -2 -1.3) (layer Dwgs.User) (width 0.05))
    (fp_line (start -1 1.3) (end -4 1.3) (layer Dwgs.User) (width 0.05))
    (fp_line (start -4 -1.3) (end -1 -1.3) (layer Dwgs.User) (width 0.05))
    (fp_line (start -1 -1.3) (end -3.6 1.3) (layer Dwgs.User) (width 0.05))
    (fp_line (start -2.6 1.3) (end -1 -0.3) (layer Dwgs.User) (width 0.05))
    (fp_line (start -4 -0.3) (end -3 -1.3) (layer Dwgs.User) (width 0.05))
    (fp_line (start -1 -1.3) (end -1 1.3) (layer Dwgs.User) (width 0.05))
    (fp_text user "No F.Cu tracks" (at 2.5 0.2) (layer Cmts.User)
      (effects (font (size 0.2 0.2) (thickness 0.03)))
    )
    (fp_text user "KEEP-OUT ZONE" (at 2.5 -0.2) (layer Cmts.User)
      (effects (font (size 0.2 0.2) (thickness 0.03)))
    )
    (fp_text user "KEEP-OUT ZONE" (at -2.5 -0.2) (layer Cmts.User)
      (effects (font (size 0.2 0.2) (thickness 0.03)))
    )
    (fp_text user "No F.Cu tracks" (at -2.5 0.2) (layer Cmts.User)
      (effects (font (size 0.2 0.2) (thickness 0.03)))
    )
    (pad 1 smd rect (at -3.1 -1.85 180) (size 1.8 1.1) (layers F.Cu F.Paste F.Mask)
      (net 1 GND))
    (pad 1 smd rect (at 3.1 -1.85 180) (size 1.8 1.1) (layers F.Cu F.Paste F.Mask)
      (net 1 GND))
    (pad 2 smd rect (at -3.1 1.85 180) (size 1.8 1.1) (layers F.Cu F.Paste F.Mask)
      (net 4 /PDI_CLK))
    (pad 2 smd rect (at 3.1 1.85 180) (size 1.8 1.1) (layers F.Cu F.Paste F.Mask)
      (net 4 /PDI_CLK))
    (model ${KISYS3DMOD}/Button_Switch_SMD.3dshapes/SW_SPST_SKQG_WithStem.wrl
      (at (xyz 0 0 0))
      (scale (xyz 1 1 1))
      (rotate (xyz 0 0 0))
    )
  )

  (module Package_QFP:TQFP-32_7x7mm_P0.8mm (layer F.Cu) (tedit 5A02F146) (tstamp 5E114EB8)
    (at 127 92.71 225)
    (descr "32-Lead Plastic Thin Quad Flatpack (PT) - 7x7x1.0 mm Body, 2.00 mm [TQFP] (see Microchip Packaging Specification 00000049BS.pdf)")
    (tags "QFP 0.8")
    (path /5E10DBE7)
    (attr smd)
    (fp_text reference U1 (at 0 -6.05 45) (layer F.SilkS)
      (effects (font (size 1 1) (thickness 0.15)))
    )
    (fp_text value ATxmega32E5-AU (at 0 6.05 45) (layer F.Fab)
      (effects (font (size 1 1) (thickness 0.15)))
    )
    (fp_text user %R (at 0 0 45) (layer F.Fab)
      (effects (font (size 1 1) (thickness 0.15)))
    )
    (fp_line (start -2.5 -3.5) (end 3.5 -3.5) (layer F.Fab) (width 0.15))
    (fp_line (start 3.5 -3.5) (end 3.5 3.5) (layer F.Fab) (width 0.15))
    (fp_line (start 3.5 3.5) (end -3.5 3.5) (layer F.Fab) (width 0.15))
    (fp_line (start -3.5 3.5) (end -3.5 -2.5) (layer F.Fab) (width 0.15))
    (fp_line (start -3.5 -2.5) (end -2.5 -3.5) (layer F.Fab) (width 0.15))
    (fp_line (start -5.3 -5.3) (end -5.3 5.3) (layer F.CrtYd) (width 0.05))
    (fp_line (start 5.3 -5.3) (end 5.3 5.3) (layer F.CrtYd) (width 0.05))
    (fp_line (start -5.3 -5.3) (end 5.3 -5.3) (layer F.CrtYd) (width 0.05))
    (fp_line (start -5.3 5.3) (end 5.3 5.3) (layer F.CrtYd) (width 0.05))
    (fp_line (start -3.625 -3.625) (end -3.625 -3.4) (layer F.SilkS) (width 0.15))
    (fp_line (start 3.625 -3.625) (end 3.625 -3.3) (layer F.SilkS) (width 0.15))
    (fp_line (start 3.625 3.625) (end 3.625 3.3) (layer F.SilkS) (width 0.15))
    (fp_line (start -3.625 3.625) (end -3.625 3.3) (layer F.SilkS) (width 0.15))
    (fp_line (start -3.625 -3.625) (end -3.3 -3.625) (layer F.SilkS) (width 0.15))
    (fp_line (start -3.625 3.625) (end -3.3 3.625) (layer F.SilkS) (width 0.15))
    (fp_line (start 3.625 3.625) (end 3.3 3.625) (layer F.SilkS) (width 0.15))
    (fp_line (start 3.625 -3.625) (end 3.3 -3.625) (layer F.SilkS) (width 0.15))
    (fp_line (start -3.625 -3.4) (end -5.05 -3.4) (layer F.SilkS) (width 0.15))
    (pad 1 smd rect (at -4.25 -2.8 225) (size 1.6 0.55) (layers F.Cu F.Paste F.Mask)
      (net 1 GND))
    (pad 2 smd rect (at -4.25 -2 225) (size 1.6 0.55) (layers F.Cu F.Paste F.Mask)
      (net 6 /PA4))
    (pad 3 smd rect (at -4.25 -1.2 225) (size 1.6 0.55) (layers F.Cu F.Paste F.Mask)
      (net 7 /PA3))
    (pad 4 smd rect (at -4.25 -0.4 225) (size 1.6 0.55) (layers F.Cu F.Paste F.Mask)
      (net 8 /PA2))
    (pad 5 smd rect (at -4.25 0.4 225) (size 1.6 0.55) (layers F.Cu F.Paste F.Mask)
      (net 9 /PA1))
    (pad 6 smd rect (at -4.25 1.2 225) (size 1.6 0.55) (layers F.Cu F.Paste F.Mask)
      (net 10 /PA0))
    (pad 7 smd rect (at -4.25 2 225) (size 1.6 0.55) (layers F.Cu F.Paste F.Mask)
      (net 3 /PDI_DATA))
    (pad 8 smd rect (at -4.25 2.8 225) (size 1.6 0.55) (layers F.Cu F.Paste F.Mask)
      (net 4 /PDI_CLK))
    (pad 9 smd rect (at -2.8 4.25 315) (size 1.6 0.55) (layers F.Cu F.Paste F.Mask)
      (net 11 /PC7))
    (pad 10 smd rect (at -2 4.25 315) (size 1.6 0.55) (layers F.Cu F.Paste F.Mask)
      (net 12 /PC6))
    (pad 11 smd rect (at -1.2 4.25 315) (size 1.6 0.55) (layers F.Cu F.Paste F.Mask)
      (net 13 /PC5))
    (pad 12 smd rect (at -0.4 4.25 315) (size 1.6 0.55) (layers F.Cu F.Paste F.Mask)
      (net 14 /PC4))
    (pad 13 smd rect (at 0.4 4.25 315) (size 1.6 0.55) (layers F.Cu F.Paste F.Mask)
      (net 15 /PC3))
    (pad 14 smd rect (at 1.2 4.25 315) (size 1.6 0.55) (layers F.Cu F.Paste F.Mask)
      (net 16 /PC2))
    (pad 15 smd rect (at 2 4.25 315) (size 1.6 0.55) (layers F.Cu F.Paste F.Mask)
      (net 17 /PC1))
    (pad 16 smd rect (at 2.8 4.25 315) (size 1.6 0.55) (layers F.Cu F.Paste F.Mask)
      (net 18 /PC0))
    (pad 17 smd rect (at 4.25 2.8 225) (size 1.6 0.55) (layers F.Cu F.Paste F.Mask)
      (net 2 VCC))
    (pad 18 smd rect (at 4.25 2 225) (size 1.6 0.55) (layers F.Cu F.Paste F.Mask)
      (net 1 GND))
    (pad 19 smd rect (at 4.25 1.2 225) (size 1.6 0.55) (layers F.Cu F.Paste F.Mask)
      (net 19 /PR1))
    (pad 20 smd rect (at 4.25 0.4 225) (size 1.6 0.55) (layers F.Cu F.Paste F.Mask)
      (net 20 /PR0))
    (pad 21 smd rect (at 4.25 -0.4 225) (size 1.6 0.55) (layers F.Cu F.Paste F.Mask)
      (net 21 /PD7))
    (pad 22 smd rect (at 4.25 -1.2 225) (size 1.6 0.55) (layers F.Cu F.Paste F.Mask)
      (net 22 /PD6))
    (pad 23 smd rect (at 4.25 -2 225) (size 1.6 0.55) (layers F.Cu F.Paste F.Mask)
      (net 23 /PD5))
    (pad 24 smd rect (at 4.25 -2.8 225) (size 1.6 0.55) (layers F.Cu F.Paste F.Mask)
      (net 24 /PD4))
    (pad 25 smd rect (at 2.8 -4.25 315) (size 1.6 0.55) (layers F.Cu F.Paste F.Mask)
      (net 25 /PD3))
    (pad 26 smd rect (at 2 -4.25 315) (size 1.6 0.55) (layers F.Cu F.Paste F.Mask)
      (net 26 /PD2))
    (pad 27 smd rect (at 1.2 -4.25 315) (size 1.6 0.55) (layers F.Cu F.Paste F.Mask)
      (net 27 /PD1))
    (pad 28 smd rect (at 0.4 -4.25 315) (size 1.6 0.55) (layers F.Cu F.Paste F.Mask)
      (net 28 /PD0))
    (pad 29 smd rect (at -0.4 -4.25 315) (size 1.6 0.55) (layers F.Cu F.Paste F.Mask)
      (net 29 /PA7))
    (pad 30 smd rect (at -1.2 -4.25 315) (size 1.6 0.55) (layers F.Cu F.Paste F.Mask)
      (net 30 /PA6))
    (pad 31 smd rect (at -2 -4.25 315) (size 1.6 0.55) (layers F.Cu F.Paste F.Mask)
      (net 31 /PA5))
    (pad 32 smd rect (at -2.8 -4.25 315) (size 1.6 0.55) (layers F.Cu F.Paste F.Mask)
      (net 5 /AVCC))
    (model ${KISYS3DMOD}/Package_QFP.3dshapes/TQFP-32_7x7mm_P0.8mm.wrl
      (at (xyz 0 0 0))
      (scale (xyz 1 1 1))
      (rotate (xyz 0 0 0))
    )
  )

  (gr_text PC0 (at 118.745 93.98 270) (layer F.SilkS) (tstamp 5E10FD34)
    (effects (font (size 0.75 0.75) (thickness 0.15)))
  )
  (gr_text "PC1\n" (at 118.745 91.44 270) (layer F.SilkS) (tstamp 5E10FD32)
    (effects (font (size 0.75 0.75) (thickness 0.15)))
  )
  (gr_text "PC2\n" (at 118.745 88.9 270) (layer F.SilkS) (tstamp 5E10FD30)
    (effects (font (size 0.75 0.75) (thickness 0.15)))
  )
  (gr_text "PC3\n" (at 118.745 86.36 270) (layer F.SilkS) (tstamp 5E10FD2E)
    (effects (font (size 0.75 0.75) (thickness 0.15)))
  )
  (gr_text "PC4\n" (at 118.745 83.82 270) (layer F.SilkS) (tstamp 5E10FD2C)
    (effects (font (size 0.75 0.75) (thickness 0.15)))
  )
  (gr_text "PC5\n" (at 118.745 81.28 270) (layer F.SilkS) (tstamp 5E10FD2A)
    (effects (font (size 0.75 0.75) (thickness 0.15)))
  )
  (gr_text PC6 (at 118.745 78.74 270) (layer F.SilkS) (tstamp 5E10FD28)
    (effects (font (size 0.75 0.75) (thickness 0.15)))
  )
  (gr_text PC7 (at 118.745 76.2 270) (layer F.SilkS)
    (effects (font (size 0.75 0.75) (thickness 0.15)))
  )
  (gr_text VCC (at 135.255 109.22 90) (layer F.SilkS) (tstamp 5E10FCCC)
    (effects (font (size 0.75 0.75) (thickness 0.15)))
  )
  (gr_text VCC (at 118.745 73.66 270) (layer F.SilkS)
    (effects (font (size 0.75 0.75) (thickness 0.15)))
  )
  (gr_text GND (at 135.255 73.66 90) (layer F.SilkS) (tstamp 5E10FCA0)
    (effects (font (size 0.75 0.75) (thickness 0.15)))
  )
  (gr_text GND (at 135.255 88.9 90) (layer F.SilkS)
    (effects (font (size 0.75 0.75) (thickness 0.15)))
  )
  (target plus (at 114.935 111.125) (size 5) (width 0.05) (layer Edge.Cuts))
  (gr_line (start 114.935 111.125) (end 114.935 71.755) (layer Edge.Cuts) (width 0.05) (tstamp 5E1156B1))
  (gr_line (start 139.065 111.125) (end 114.935 111.125) (layer Edge.Cuts) (width 0.05))
  (gr_line (start 139.065 71.755) (end 139.065 111.125) (layer Edge.Cuts) (width 0.05))
  (gr_line (start 114.935 71.755) (end 139.065 71.755) (layer Edge.Cuts) (width 0.05))

  (segment (start 134.769798 88.9) (end 137.16 88.9) (width 0.5) (layer F.Cu) (net 1))
  (segment (start 131.985103 91.684695) (end 134.769798 88.9) (width 0.5) (layer F.Cu) (net 1))
  (segment (start 133.35 73.66) (end 137.16 73.66) (width 0.5) (layer B.Cu) (net 1))
  (segment (start 137.16 73.66) (end 129.54 73.66) (width 0.5) (layer B.Cu) (net 1))
  (via (at 130.175 81.28) (size 1) (drill 0.8) (layers F.Cu B.Cu) (net 1))
  (segment (start 130.1 83.13) (end 130.1 81.355) (width 0.5) (layer F.Cu) (net 1))
  (segment (start 130.1 81.355) (end 130.175 81.28) (width 0.5) (layer F.Cu) (net 1))
  (segment (start 130.175 81.28) (end 133.35 81.28) (width 0.5) (layer B.Cu) (net 1))
  (segment (start 133.35 86.995) (end 133.35 81.28) (width 0.5) (layer B.Cu) (net 1))
  (segment (start 133.35 81.28) (end 133.35 73.66) (width 0.5) (layer B.Cu) (net 1))
  (segment (start 123.9 83.13) (end 130.1 83.13) (width 0.5) (layer F.Cu) (net 1))
  (segment (start 131.348708 92.32109) (end 131.985103 91.684695) (width 0.5) (layer F.Cu) (net 1))
  (segment (start 123.225047 93.656526) (end 130.013272 93.656526) (width 0.5) (layer F.Cu) (net 1))
  (segment (start 130.013272 93.656526) (end 131.348708 92.32109) (width 0.5) (layer F.Cu) (net 1))
  (segment (start 122.580583 94.30099) (end 123.225047 93.656526) (width 0.5) (layer F.Cu) (net 1))
  (via (at 118.745 100.965) (size 1) (drill 0.8) (layers F.Cu B.Cu) (net 1))
  (segment (start 120.65 100.72) (end 118.99 100.72) (width 0.5) (layer F.Cu) (net 1))
  (segment (start 118.99 100.72) (end 118.745 100.965) (width 0.5) (layer F.Cu) (net 1))
  (via (at 132.08 104.14) (size 1) (drill 0.8) (layers F.Cu B.Cu) (net 1))
  (segment (start 132.08 104.14) (end 132.08 101.355) (width 0.5) (layer F.Cu) (net 1))
  (segment (start 121.92 104.14) (end 118.745 100.965) (width 0.5) (layer B.Cu) (net 1))
  (segment (start 127 104.14) (end 121.92 104.14) (width 0.5) (layer B.Cu) (net 1))
  (segment (start 127 104.14) (end 127 100.965) (width 0.5) (layer B.Cu) (net 1))
  (segment (start 132.08 104.14) (end 127 104.14) (width 0.5) (layer B.Cu) (net 1))
  (segment (start 126.149999 100.114999) (end 126.149999 94.195001) (width 0.5) (layer B.Cu) (net 1))
  (segment (start 127 100.965) (end 126.149999 100.114999) (width 0.5) (layer B.Cu) (net 1))
  (segment (start 126.149999 94.195001) (end 131.445 88.9) (width 0.5) (layer B.Cu) (net 1))
  (segment (start 133.35 86.995) (end 133.35 88.9) (width 0.5) (layer B.Cu) (net 1))
  (segment (start 131.445 88.9) (end 133.35 88.9) (width 0.5) (layer B.Cu) (net 1))
  (segment (start 133.35 88.9) (end 137.16 88.9) (width 0.5) (layer B.Cu) (net 1))
  (segment (start 121.285 77.08) (end 121.285 73.66) (width 0.5) (layer F.Cu) (net 2))
  (segment (start 121.285 73.66) (end 124.46 73.66) (width 0.5) (layer F.Cu) (net 2))
  (segment (start 116.84 73.66) (end 121.285 73.66) (width 0.5) (layer F.Cu) (net 2))
  (segment (start 124.46 73.66) (end 122.555 73.66) (width 0.5) (layer B.Cu) (net 2))
  (segment (start 122.555 73.66) (end 120.65 75.565) (width 0.5) (layer B.Cu) (net 2))
  (via (at 120.65 92.71) (size 1) (drill 0.8) (layers F.Cu B.Cu) (net 2))
  (segment (start 120.65 75.565) (end 120.65 92.71) (width 0.5) (layer B.Cu) (net 2))
  (segment (start 120.65 92.71) (end 121.285 93.345) (width 0.5) (layer F.Cu) (net 2))
  (segment (start 121.675305 93.735305) (end 120.65 92.71) (width 0.5) (layer F.Cu) (net 2))
  (segment (start 122.014897 93.735305) (end 121.675305 93.735305) (width 0.5) (layer F.Cu) (net 2))
  (via (at 125.73 102.87) (size 1) (drill 0.8) (layers F.Cu B.Cu) (net 2))
  (segment (start 120.65 97.79) (end 125.73 102.87) (width 0.5) (layer B.Cu) (net 2))
  (segment (start 129.295 102.87) (end 129.54 102.625) (width 0.5) (layer F.Cu) (net 2))
  (segment (start 125.73 102.87) (end 129.295 102.87) (width 0.5) (layer F.Cu) (net 2))
  (via (at 120.65 97.385) (size 1) (drill 0.8) (layers F.Cu B.Cu) (net 2))
  (segment (start 120.65 97.155) (end 120.65 97.385) (width 0.5) (layer B.Cu) (net 2))
  (segment (start 120.65 97.155) (end 120.65 97.79) (width 0.5) (layer B.Cu) (net 2))
  (segment (start 120.65 92.71) (end 120.65 97.155) (width 0.5) (layer B.Cu) (net 2))
  (segment (start 120.65 97.385) (end 120.65 98.67) (width 0.5) (layer F.Cu) (net 2))
  (segment (start 129.54 102.625) (end 129.54 105.41) (width 0.5) (layer F.Cu) (net 2))
  (segment (start 133.35 109.22) (end 137.16 109.22) (width 0.5) (layer F.Cu) (net 2))
  (segment (start 129.54 105.41) (end 133.35 109.22) (width 0.5) (layer F.Cu) (net 2))
  (via (at 129.54 86.36) (size 0.8) (drill 0.4) (layers F.Cu B.Cu) (net 3))
  (segment (start 124.46 76.2) (end 124.46 81.28) (width 0.33) (layer B.Cu) (net 3))
  (segment (start 124.46 81.28) (end 129.54 86.36) (width 0.33) (layer B.Cu) (net 3))
  (segment (start 129.54 87.341573) (end 128.59099 88.290583) (width 0.33) (layer F.Cu) (net 3))
  (segment (start 129.54 86.36) (end 129.54 87.341573) (width 0.33) (layer F.Cu) (net 3))
  (segment (start 121.585 79.43) (end 121.285 79.13) (width 0.33) (layer F.Cu) (net 4))
  (segment (start 123.9 79.43) (end 121.585 79.43) (width 0.33) (layer F.Cu) (net 4))
  (segment (start 129.54 78.87) (end 130.1 79.43) (width 0.33) (layer F.Cu) (net 4))
  (segment (start 129.54 76.2) (end 129.54 78.87) (width 0.33) (layer F.Cu) (net 4))
  (segment (start 123.9 79.43) (end 130.1 79.43) (width 0.33) (layer F.Cu) (net 4))
  (segment (start 131.33 79.43) (end 130.1 79.43) (width 0.33) (layer F.Cu) (net 4))
  (segment (start 131.91 80.01) (end 131.33 79.43) (width 0.33) (layer F.Cu) (net 4))
  (segment (start 131.91 83.99) (end 131.91 80.01) (width 0.33) (layer F.Cu) (net 4))
  (segment (start 127.635 87.334592) (end 127.635 86.36) (width 0.33) (layer F.Cu) (net 4))
  (segment (start 128.025305 87.724897) (end 127.635 87.334592) (width 0.33) (layer F.Cu) (net 4))
  (segment (start 127.635 86.36) (end 129.54 84.455) (width 0.33) (layer F.Cu) (net 4))
  (segment (start 129.54 84.455) (end 131.445 84.455) (width 0.33) (layer F.Cu) (net 4))
  (segment (start 131.445 84.455) (end 131.91 83.99) (width 0.33) (layer F.Cu) (net 4))
  (segment (start 132.08 99.305) (end 129.93 99.305) (width 0.5) (layer F.Cu) (net 5))
  (segment (start 129.54 99.695) (end 129.54 100.575) (width 0.5) (layer F.Cu) (net 5))
  (segment (start 129.93 99.305) (end 129.54 99.695) (width 0.5) (layer F.Cu) (net 5))
  (segment (start 133.565001 95.315203) (end 133.565001 98.844999) (width 0.5) (layer F.Cu) (net 5))
  (segment (start 131.985103 93.735305) (end 133.565001 95.315203) (width 0.5) (layer F.Cu) (net 5))
  (segment (start 133.105 99.305) (end 132.08 99.305) (width 0.5) (layer F.Cu) (net 5))
  (segment (start 133.565001 98.844999) (end 133.105 99.305) (width 0.5) (layer F.Cu) (net 5))
  (segment (start 136.063286 87.456714) (end 137.16 86.36) (width 0.33) (layer F.Cu) (net 6))
  (segment (start 135.081714 87.456714) (end 136.063286 87.456714) (width 0.33) (layer F.Cu) (net 6))
  (segment (start 131.419417 91.11901) (end 135.081714 87.456714) (width 0.33) (layer F.Cu) (net 6))
  (segment (start 134.62 84.455) (end 135.255 83.82) (width 0.33) (layer F.Cu) (net 7))
  (segment (start 135.255 83.82) (end 137.16 83.82) (width 0.33) (layer F.Cu) (net 7))
  (segment (start 130.853732 90.553324) (end 134.62 86.787056) (width 0.33) (layer F.Cu) (net 7))
  (segment (start 134.62 86.787056) (end 134.62 84.455) (width 0.33) (layer F.Cu) (net 7))
  (segment (start 130.288047 89.987639) (end 133.985 86.290686) (width 0.33) (layer F.Cu) (net 8))
  (segment (start 133.985 86.290686) (end 133.985 82.55) (width 0.33) (layer F.Cu) (net 8))
  (segment (start 135.255 81.28) (end 137.16 81.28) (width 0.33) (layer F.Cu) (net 8))
  (segment (start 133.985 82.55) (end 135.255 81.28) (width 0.33) (layer F.Cu) (net 8))
  (segment (start 129.722361 89.421953) (end 133.35 85.794314) (width 0.33) (layer F.Cu) (net 9))
  (segment (start 133.35 85.794314) (end 133.35 80.645) (width 0.33) (layer F.Cu) (net 9))
  (segment (start 135.255 78.74) (end 137.16 78.74) (width 0.33) (layer F.Cu) (net 9))
  (segment (start 133.35 80.645) (end 135.255 78.74) (width 0.33) (layer F.Cu) (net 9))
  (segment (start 133.985 76.2) (end 137.16 76.2) (width 0.33) (layer F.Cu) (net 10))
  (segment (start 132.44001 77.74499) (end 133.985 76.2) (width 0.33) (layer F.Cu) (net 10))
  (segment (start 129.156676 88.856268) (end 132.44001 85.572934) (width 0.33) (layer F.Cu) (net 10))
  (segment (start 132.44001 85.572934) (end 132.44001 77.74499) (width 0.33) (layer F.Cu) (net 10))
  (segment (start 116.84 76.2) (end 119.38 76.2) (width 0.33) (layer F.Cu) (net 11))
  (segment (start 120.21999 77.03999) (end 120.21999 80.21499) (width 0.33) (layer F.Cu) (net 11))
  (segment (start 119.38 76.2) (end 120.21999 77.03999) (width 0.33) (layer F.Cu) (net 11))
  (segment (start 120.21999 80.21499) (end 121.92 81.915) (width 0.33) (layer F.Cu) (net 11))
  (segment (start 121.92 83.670202) (end 125.974695 87.724897) (width 0.33) (layer F.Cu) (net 11))
  (segment (start 121.92 81.915) (end 121.92 83.670202) (width 0.33) (layer F.Cu) (net 11))
  (segment (start 124.772615 87.654188) (end 125.40901 88.290583) (width 0.33) (layer F.Cu) (net 12))
  (segment (start 119.68998 82.571553) (end 124.772615 87.654188) (width 0.33) (layer F.Cu) (net 12))
  (segment (start 116.84 78.74) (end 118.11 78.74) (width 0.33) (layer F.Cu) (net 12))
  (segment (start 118.11 78.74) (end 119.68998 80.31998) (width 0.33) (layer F.Cu) (net 12))
  (segment (start 119.68998 80.31998) (end 119.68998 82.571553) (width 0.33) (layer F.Cu) (net 12))
  (segment (start 116.84 81.28) (end 117.475 81.28) (width 0.33) (layer F.Cu) (net 13))
  (segment (start 117.267056 81.28) (end 116.84 81.28) (width 0.33) (layer F.Cu) (net 13))
  (segment (start 124.843324 88.856268) (end 117.267056 81.28) (width 0.33) (layer F.Cu) (net 13))
  (segment (start 118.675686 83.82) (end 116.84 83.82) (width 0.33) (layer F.Cu) (net 14))
  (segment (start 124.277639 89.421953) (end 118.675686 83.82) (width 0.33) (layer F.Cu) (net 14))
  (segment (start 120.084314 86.36) (end 116.84 86.36) (width 0.33) (layer F.Cu) (net 15))
  (segment (start 123.711953 89.987639) (end 120.084314 86.36) (width 0.33) (layer F.Cu) (net 15))
  (segment (start 121.492944 88.9) (end 116.84 88.9) (width 0.33) (layer F.Cu) (net 16))
  (segment (start 123.146268 90.553324) (end 121.492944 88.9) (width 0.33) (layer F.Cu) (net 16))
  (segment (start 118.745 89.535) (end 116.84 91.44) (width 0.33) (layer F.Cu) (net 17))
  (segment (start 122.580583 91.11901) (end 120.996573 89.535) (width 0.33) (layer F.Cu) (net 17))
  (segment (start 120.996573 89.535) (end 118.745 89.535) (width 0.33) (layer F.Cu) (net 17))
  (segment (start 122.014897 91.684695) (end 121.135202 90.805) (width 0.33) (layer F.Cu) (net 18))
  (segment (start 120.015 90.805) (end 116.84 93.98) (width 0.33) (layer F.Cu) (net 18))
  (segment (start 121.135202 90.805) (end 120.015 90.805) (width 0.33) (layer F.Cu) (net 18))
  (segment (start 116.84 96.52) (end 118.745 96.52) (width 0.33) (layer F.Cu) (net 19))
  (segment (start 118.745 96.52) (end 119.38 95.885) (width 0.33) (layer F.Cu) (net 19))
  (segment (start 122.127944 95.885) (end 123.146268 94.866676) (width 0.33) (layer F.Cu) (net 19))
  (segment (start 119.38 95.885) (end 122.127944 95.885) (width 0.33) (layer F.Cu) (net 19))
  (segment (start 120.015 96.52) (end 122.624314 96.52) (width 0.33) (layer F.Cu) (net 20))
  (segment (start 118.324999 98.210001) (end 120.015 96.52) (width 0.33) (layer F.Cu) (net 20))
  (segment (start 122.624314 96.52) (end 123.711953 95.432361) (width 0.33) (layer F.Cu) (net 20))
  (segment (start 116.84 99.06) (end 117.689999 98.210001) (width 0.33) (layer F.Cu) (net 20))
  (segment (start 117.689999 98.210001) (end 118.324999 98.210001) (width 0.33) (layer F.Cu) (net 20))
  (segment (start 121.92 98.425) (end 123.641244 96.703756) (width 0.33) (layer F.Cu) (net 21))
  (segment (start 123.641244 96.634442) (end 124.277639 95.998047) (width 0.33) (layer F.Cu) (net 21))
  (segment (start 118.11 101.6) (end 118.745 102.235) (width 0.33) (layer F.Cu) (net 21))
  (segment (start 116.84 101.6) (end 118.11 101.6) (width 0.33) (layer F.Cu) (net 21))
  (segment (start 118.745 102.235) (end 121.285 102.235) (width 0.33) (layer F.Cu) (net 21))
  (segment (start 123.641244 96.703756) (end 123.641244 96.634442) (width 0.33) (layer F.Cu) (net 21))
  (segment (start 121.285 102.235) (end 121.92 101.6) (width 0.33) (layer F.Cu) (net 21))
  (segment (start 121.92 101.6) (end 121.92 98.425) (width 0.33) (layer F.Cu) (net 21))
  (segment (start 118.042081 104.14) (end 116.84 104.14) (width 0.33) (layer F.Cu) (net 22))
  (segment (start 120.129546 104.14) (end 118.042081 104.14) (width 0.33) (layer F.Cu) (net 22))
  (segment (start 122.555 101.714546) (end 120.129546 104.14) (width 0.33) (layer F.Cu) (net 22))
  (segment (start 122.555 98.852056) (end 122.555 101.714546) (width 0.33) (layer F.Cu) (net 22))
  (segment (start 124.843324 96.563732) (end 122.555 98.852056) (width 0.33) (layer F.Cu) (net 22))
  (segment (start 125.40901 97.129417) (end 123.19 99.348427) (width 0.33) (layer F.Cu) (net 23))
  (segment (start 118.042081 106.68) (end 116.84 106.68) (width 0.33) (layer F.Cu) (net 23))
  (segment (start 118.339092 106.68) (end 118.042081 106.68) (width 0.33) (layer F.Cu) (net 23))
  (segment (start 123.19 101.829092) (end 118.339092 106.68) (width 0.33) (layer F.Cu) (net 23))
  (segment (start 123.19 99.348427) (end 123.19 101.829092) (width 0.33) (layer F.Cu) (net 23))
  (segment (start 123.72001 103.51999) (end 118.02 109.22) (width 0.33) (layer F.Cu) (net 24))
  (segment (start 123.72001 99.949788) (end 123.72001 103.51999) (width 0.33) (layer F.Cu) (net 24))
  (segment (start 118.02 109.22) (end 116.84 109.22) (width 0.33) (layer F.Cu) (net 24))
  (segment (start 125.974695 97.695103) (end 123.72001 99.949788) (width 0.33) (layer F.Cu) (net 24))
  (via (at 127 98.425) (size 0.8) (drill 0.4) (layers F.Cu B.Cu) (net 25))
  (segment (start 128.025305 97.695103) (end 127.729897 97.695103) (width 0.33) (layer F.Cu) (net 25))
  (segment (start 127.729897 97.695103) (end 127 98.425) (width 0.33) (layer F.Cu) (net 25))
  (segment (start 135.957919 106.68) (end 137.16 106.68) (width 0.33) (layer B.Cu) (net 25))
  (segment (start 135.900202 106.68) (end 135.957919 106.68) (width 0.33) (layer B.Cu) (net 25))
  (segment (start 127.645202 98.425) (end 135.900202 106.68) (width 0.33) (layer B.Cu) (net 25))
  (segment (start 127 98.425) (end 127.645202 98.425) (width 0.33) (layer B.Cu) (net 25))
  (via (at 129.532231 98.432769) (size 0.8) (drill 0.4) (layers F.Cu B.Cu) (net 26))
  (segment (start 135.239462 104.14) (end 137.16 104.14) (width 0.33) (layer B.Cu) (net 26))
  (segment (start 129.532231 98.432769) (end 135.239462 104.14) (width 0.33) (layer B.Cu) (net 26))
  (segment (start 129.532231 98.070658) (end 128.59099 97.129417) (width 0.33) (layer F.Cu) (net 26))
  (segment (start 129.532231 98.432769) (end 129.532231 98.070658) (width 0.33) (layer F.Cu) (net 26))
  (via (at 127.508946 95.327609) (size 0.8) (drill 0.4) (layers F.Cu B.Cu) (net 27))
  (segment (start 129.156676 96.563732) (end 127.920553 95.327609) (width 0.33) (layer F.Cu) (net 27))
  (segment (start 127.920553 95.327609) (end 127.508946 95.327609) (width 0.33) (layer F.Cu) (net 27))
  (segment (start 133.781337 101.6) (end 137.16 101.6) (width 0.33) (layer B.Cu) (net 27))
  (segment (start 127.508946 95.327609) (end 133.781337 101.6) (width 0.33) (layer B.Cu) (net 27))
  (via (at 128.27 94.615) (size 0.8) (drill 0.4) (layers F.Cu B.Cu) (net 28))
  (segment (start 129.722361 95.998047) (end 129.653047 95.998047) (width 0.33) (layer F.Cu) (net 28))
  (segment (start 129.653047 95.998047) (end 128.27 94.615) (width 0.33) (layer F.Cu) (net 28))
  (segment (start 132.08 99.06) (end 135.957919 99.06) (width 0.33) (layer B.Cu) (net 28))
  (segment (start 128.27 95.25) (end 132.08 99.06) (width 0.33) (layer B.Cu) (net 28))
  (segment (start 135.957919 99.06) (end 137.16 99.06) (width 0.33) (layer B.Cu) (net 28))
  (segment (start 128.27 94.615) (end 128.27 95.25) (width 0.33) (layer B.Cu) (net 28))
  (via (at 131.445 97.155) (size 0.8) (drill 0.4) (layers F.Cu B.Cu) (net 29))
  (segment (start 130.288047 95.432361) (end 131.445 96.589314) (width 0.33) (layer F.Cu) (net 29))
  (segment (start 131.445 96.589314) (end 131.445 97.155) (width 0.33) (layer F.Cu) (net 29))
  (segment (start 135.255 96.52) (end 137.16 96.52) (width 0.33) (layer B.Cu) (net 29))
  (segment (start 132.210001 97.920001) (end 133.854999 97.920001) (width 0.33) (layer B.Cu) (net 29))
  (segment (start 133.854999 97.920001) (end 135.255 96.52) (width 0.33) (layer B.Cu) (net 29))
  (segment (start 131.445 97.155) (end 132.210001 97.920001) (width 0.33) (layer B.Cu) (net 29))
  (segment (start 132.715 97.155) (end 135.89 93.98) (width 0.33) (layer B.Cu) (net 30))
  (segment (start 135.89 93.98) (end 137.16 93.98) (width 0.33) (layer B.Cu) (net 30))
  (via (at 132.715 97.155) (size 0.8) (drill 0.4) (layers F.Cu B.Cu) (net 30))
  (segment (start 131.949999 95.962943) (end 131.490127 95.503071) (width 0.33) (layer F.Cu) (net 30))
  (segment (start 131.490127 95.503071) (end 130.853732 94.866676) (width 0.33) (layer F.Cu) (net 30))
  (segment (start 131.949999 96.389999) (end 131.949999 95.962943) (width 0.33) (layer F.Cu) (net 30))
  (segment (start 132.715 97.155) (end 131.949999 96.389999) (width 0.33) (layer F.Cu) (net 30))
  (segment (start 135.255 91.44) (end 137.16 91.44) (width 0.33) (layer B.Cu) (net 31))
  (segment (start 132.715 93.98) (end 135.255 91.44) (width 0.33) (layer B.Cu) (net 31))
  (via (at 132.715 95.885) (size 0.8) (drill 0.4) (layers F.Cu B.Cu) (net 31))
  (segment (start 132.715 95.596573) (end 131.419417 94.30099) (width 0.33) (layer F.Cu) (net 31))
  (segment (start 132.715 95.885) (end 132.715 95.596573) (width 0.33) (layer F.Cu) (net 31))
  (segment (start 132.715 95.885) (end 132.715 93.98) (width 0.33) (layer B.Cu) (net 31))

)
